<?xml version="1.0" encoding="iso-8859-1"?>
<!-- Generator: Adobe Illustrator 16.0.0, SVG Export Plug-In . SVG Version: 6.00 Build 0)  -->
<!DOCTYPE svg PUBLIC "-//W3C//DTD SVG 1.1//EN" "http://www.w3.org/Graphics/SVG/1.1/DTD/svg11.dtd">
<svg version="1.1" id="Capa_1" xmlns="http://www.w3.org/2000/svg" xmlns:xlink="http://www.w3.org/1999/xlink" x="0px" y="0px"
	 width="123.959px" height="123.958px" viewBox="0 0 123.959 123.958" style="enable-background:new 0 0 123.959 123.958;"
	 xml:space="preserve">
<g>
	<path fill="#5b5b5b" d="M117.979,28.017h-112c-5.3,0-8,6.4-4.2,10.2l56,56c2.3,2.3,6.1,2.3,8.401,0l56-56
		C125.979,34.417,123.279,28.017,117.979,28.017z"/>
</g>
</svg>
